Model Fitting · BayesianNetworkRegression.jl
…
out = Summary(result)
Note that the show function for a Results object is already calling Summary(result) internally, and thus, if you simply call:

result
you observe the same output as when calling

out = Summary(result)
The out object is now a BNRSummary object with two main data frames:
DataFrame with edge coefficient point estimates and endpoints of credible intervals (default 95%):

julia> out.edge_coef
435×5 DataFrame
 Row │ node1  node2  estimate  lower_bound  upper_bound 
     │ Int64  Int64  Float64   Float64      Float64     
─────┼──────────────────────────────────────────────────
   1 │     1      2     2.385       -1.976        6.157
   2 │     1      3     1.823       -5.257        7.595
   3 │     1      4     1.763       -4.514        6.009
  ⋮  │   ⋮      ⋮       ⋮           ⋮            ⋮
 433 │    28     29     3.51        -1.251        7.376
 434 │    28     30     1.949       -3.425        6.135
 435 │    29     30     2.785       -0.772        6.042
                                        429 rows omitted
DataFrame with probabilities of being influencial for each node

julia> out.prob_nodes
30×1 DataFrame
 Row │ probability 
     │ Float64     
─────┼─────────────
   1 │        0.86
   2 │        0.92
   3 │        0.78
  ⋮  │      ⋮
  28 │        0.93
  29 │        0.89
  30 │        0.87
    24 rows omitted
…
