…
Note that the `show` function for a `Results` object is already calling `Summary(result)` internally, and thus, if you simply call:
```julia
result
```
you observe the same output as when calling
```julia
out = Summary(result)
```

The `out` object is now a `BNRSummary` object with two main data frames:

1. DataFrame with edge coefficient point estimates and endpoints of credible intervals (default 95%):
```
julia> out.edge_coef
465×5 DataFrame
 Row │ node1  node2  estimate  lower_bound  upper_bound 
     │ Int64  Int64  Float64   Float64      Float64     
─────┼──────────────────────────────────────────────────
   1 │     1      1     2.677       -0.753        5.392
   2 │     1      2     2.573       -1.27         4.881
   3 │     1      3     2.106        0.207        3.876
  ⋮  │   ⋮      ⋮       ⋮           ⋮            ⋮
 463 │    29     29     9.074        5.199       13.233
 464 │    29     30     3.015       -1.028        7.793
 465 │    30     30     1.262       -1.334        4.296
                                        459 rows omitted
```

2. DataFrame with probabilities of being influential for each node
```
julia> out.prob_nodes
30×1 DataFrame
 Row │ probability 
     │ Float64     
─────┼─────────────
   1 │        1.0
   2 │        1.0
   3 │        1.0
  ⋮  │      ⋮
  28 │        1.0
  29 │        1.0
  30 │        1.0
    24 rows omitted
```
…
