# Interpreting the Model Results

## Interpretation

From the [`Fit!`](@ref) and [`Summary`](@ref) functions in previous section, we end up with two tables summarizing the mean estimates for the regression coefficients for the edge effects (`out.edge_coef`) and the posterior probabilities that nodes are influential (`out.prob_nodes`):


```
julia> out.edge_coef
465×5 DataFrame
 Row │ node1  node2  estimate  lower_bound  upper_bound 
     │ Int64  Int64  Float64   Float64      Float64     
─────┼──────────────────────────────────────────────────
   1 │     1      1     2.677       -0.753        5.392
   2 │     1      2     2.573       -1.27         4.881
   3 │     1      3     2.106        0.207        3.876
  ⋮  │   ⋮      ⋮       ⋮           ⋮            ⋮
 463 │    29     29     9.074        5.199       13.233
 464 │    29     30     3.015       -1.028        7.793
 465 │    30     30     1.262       -1.334        4.296
                                        459 rows omitted

julia> out.prob_nodes
30×1 DataFrame
 Row │ probability 
     │ Float64     
─────┼─────────────
   1 │        1.0
   2 │        1.0
   3 │        1.0
  ⋮  │      ⋮
  28 │        1.0
  29 │        1.0
  30 │        1.0
    24 rows omitted
```
…
