Interpretation · BayesianNetworkRegression.jl
…
Edit on GitHub
Interpreting the Model Results
Interpretation
From the Fit! and Summary functions in previous section, we end up with two tables summarizing the mean estimates for the regression coefficients for the edge effects (out.edge_coef) and the posterior probabilities that nodes are influential (out.prob_nodes):

julia> out.edge_coef
435×5 DataFrame
 Row │ node1  node2  estimate  lower_bound  upper_bound 
     │ Int64  Int64  Float64   Float64      Float64     
─────┼──────────────────────────────────────────────────
   1 │     1      2     2.385       -1.976        6.157
   2 │     1      3     1.823       -5.257        7.595
   3 │     1      4     1.763       -4.514        6.009
  ⋮  │   ⋮      ⋮       ⋮           ⋮            ⋮
 433 │    28     29     3.51        -1.251        7.376
 434 │    28     30     1.949       -3.425        6.135
 435 │    29     30     2.785       -0.772        6.042
                                        429 rows omitted

julia> out.prob_nodes
30×1 DataFrame
 Row │ probability 
     │ Float64     
─────┼─────────────
   1 │        0.86
   2 │        0.92
   3 │        0.78
  ⋮  │      ⋮
  28 │        0.93
  29 │        0.89
  30 │        0.87
    24 rows omitted
…
